{
  "configVersion": 2,
  "packages": [
    {
      "name": "_fe_analyzer_shared",
      "rootUri": "file:///Users/tyfoo/Documents/Development/flutter/.pub-cache/hosted/pub.dartlang.org/_fe_analyzer_shared-22.0.0",
      "packageUri": "lib/",
      "languageVersion": "2.12"
    },
    {
      "name": "analyzer",
      "rootUri": "file:///Users/tyfoo/Documents/Development/flutter/.pub-cache/hosted/pub.dartlang.org/analyzer-1.7.2",
      "packageUri": "lib/",
      "languageVersion": "2.12"
    },
    {
      "name": "args",
      "rootUri": "file:///Users/tyfoo/Documents/Development/flutter/.pub-cache/hosted/pub.dartlang.org/args-2.2.0",
      "packageUri": "lib/",
      "languageVersion": "2.12"
    },
    {
      "name": "async",
      "rootUri": "file:///Users/tyfoo/Documents/Development/flutter/.pub-cache/hosted/pub.dartlang.org/async-2.8.1",
      "packageUri": "lib/",
      "languageVersion": "2.12"
    },
    {
      "name": "bloc",
      "rootUri": "file:///Users/tyfoo/Documents/Development/flutter/.pub-cache/hosted/pub.dartlang.org/bloc-7.1.0",
      "packageUri": "lib/",
      "languageVersion": "2.12"
    },
    {
      "name": "bloc_test",
      "rootUri": "file:///Users/tyfoo/Documents/Development/flutter/.pub-cache/hosted/pub.dartlang.org/bloc_test-8.1.0",
      "packageUri": "lib/",
      "languageVersion": "2.12"
    },
    {
      "name": "boolean_selector",
      "rootUri": "file:///Users/tyfoo/Documents/Development/flutter/.pub-cache/hosted/pub.dartlang.org/boolean_selector-2.1.0",
      "packageUri": "lib/",
      "languageVersion": "2.12"
    },
    {
      "name": "build",
      "rootUri": "file:///Users/tyfoo/Documents/Development/flutter/.pub-cache/hosted/pub.dartlang.org/build-2.1.0",
      "packageUri": "lib/",
      "languageVersion": "2.12"
    },
    {
      "name": "build_config",
      "rootUri": "file:///Users/tyfoo/Documents/Development/flutter/.pub-cache/hosted/pub.dartlang.org/build_config-1.0.0",
      "packageUri": "lib/",
      "languageVersion": "2.12"
    },
    {
      "name": "build_daemon",
      "rootUri": "file:///Users/tyfoo/Documents/Development/flutter/.pub-cache/hosted/pub.dartlang.org/build_daemon-3.0.0",
      "packageUri": "lib/",
      "languageVersion": "2.12"
    },
    {
      "name": "build_resolvers",
      "rootUri": "file:///Users/tyfoo/Documents/Development/flutter/.pub-cache/hosted/pub.dartlang.org/build_resolvers-2.0.4",
      "packageUri": "lib/",
      "languageVersion": "2.12"
    },
    {
      "name": "build_runner",
      "rootUri": "file:///Users/tyfoo/Documents/Development/flutter/.pub-cache/hosted/pub.dartlang.org/build_runner-2.1.2",
      "packageUri": "lib/",
      "languageVersion": "2.12"
    },
    {
      "name": "build_runner_core",
      "rootUri": "file:///Users/tyfoo/Documents/Development/flutter/.pub-cache/hosted/pub.dartlang.org/build_runner_core-7.1.0",
      "packageUri": "lib/",
      "languageVersion": "2.12"
    },
    {
      "name": "built_collection",
      "rootUri": "file:///Users/tyfoo/Documents/Development/flutter/.pub-cache/hosted/pub.dartlang.org/built_collection-5.1.1",
      "packageUri": "lib/",
      "languageVersion": "2.12"
    },
    {
      "name": "built_value",
      "rootUri": "file:///Users/tyfoo/Documents/Development/flutter/.pub-cache/hosted/pub.dartlang.org/built_value-8.1.2",
      "packageUri": "lib/",
      "languageVersion": "2.12"
    },
    {
      "name": "characters",
      "rootUri": "file:///Users/tyfoo/Documents/Development/flutter/.pub-cache/hosted/pub.dartlang.org/characters-1.1.0",
      "packageUri": "lib/",
      "languageVersion": "2.12"
    },
    {
      "name": "charcode",
      "rootUri": "file:///Users/tyfoo/Documents/Development/flutter/.pub-cache/hosted/pub.dartlang.org/charcode-1.3.1",
      "packageUri": "lib/",
      "languageVersion": "2.12"
    },
    {
      "name": "checked_yaml",
      "rootUri": "file:///Users/tyfoo/Documents/Development/flutter/.pub-cache/hosted/pub.dartlang.org/checked_yaml-2.0.1",
      "packageUri": "lib/",
      "languageVersion": "2.12"
    },
    {
      "name": "cli_util",
      "rootUri": "file:///Users/tyfoo/Documents/Development/flutter/.pub-cache/hosted/pub.dartlang.org/cli_util-0.3.3",
      "packageUri": "lib/",
      "languageVersion": "2.12"
    },
    {
      "name": "clock",
      "rootUri": "file:///Users/tyfoo/Documents/Development/flutter/.pub-cache/hosted/pub.dartlang.org/clock-1.1.0",
      "packageUri": "lib/",
      "languageVersion": "2.12"
    },
    {
      "name": "code_builder",
      "rootUri": "file:///Users/tyfoo/Documents/Development/flutter/.pub-cache/hosted/pub.dartlang.org/code_builder-4.1.0",
      "packageUri": "lib/",
      "languageVersion": "2.12"
    },
    {
      "name": "collection",
      "rootUri": "file:///Users/tyfoo/Documents/Development/flutter/.pub-cache/hosted/pub.dartlang.org/collection-1.15.0",
      "packageUri": "lib/",
      "languageVersion": "2.12"
    },
    {
      "name": "connectivity_plus",
      "rootUri": "file:///Users/tyfoo/Documents/Development/flutter/.pub-cache/hosted/pub.dartlang.org/connectivity_plus-1.1.0",
      "packageUri": "lib/",
      "languageVersion": "2.12"
    },
    {
      "name": "connectivity_plus_linux",
      "rootUri": "file:///Users/tyfoo/Documents/Development/flutter/.pub-cache/hosted/pub.dartlang.org/connectivity_plus_linux-1.1.0",
      "packageUri": "lib/",
      "languageVersion": "2.12"
    },
    {
      "name": "connectivity_plus_macos",
      "rootUri": "file:///Users/tyfoo/Documents/Development/flutter/.pub-cache/hosted/pub.dartlang.org/connectivity_plus_macos-1.1.0",
      "packageUri": "lib/",
      "languageVersion": "2.12"
    },
    {
      "name": "connectivity_plus_platform_interface",
      "rootUri": "file:///Users/tyfoo/Documents/Development/flutter/.pub-cache/hosted/pub.dartlang.org/connectivity_plus_platform_interface-1.1.0",
      "packageUri": "lib/",
      "languageVersion": "2.12"
    },
    {
      "name": "connectivity_plus_web",
      "rootUri": "file:///Users/tyfoo/Documents/Development/flutter/.pub-cache/hosted/pub.dartlang.org/connectivity_plus_web-1.1.0+1",
      "packageUri": "lib/",
      "languageVersion": "2.12"
    },
    {
      "name": "connectivity_plus_windows",
      "rootUri": "file:///Users/tyfoo/Documents/Development/flutter/.pub-cache/hosted/pub.dartlang.org/connectivity_plus_windows-1.1.0",
      "packageUri": "lib/",
      "languageVersion": "2.12"
    },
    {
      "name": "convert",
      "rootUri": "file:///Users/tyfoo/Documents/Development/flutter/.pub-cache/hosted/pub.dartlang.org/convert-3.0.1",
      "packageUri": "lib/",
      "languageVersion": "2.12"
    },
    {
      "name": "coverage",
      "rootUri": "file:///Users/tyfoo/Documents/Development/flutter/.pub-cache/hosted/pub.dartlang.org/coverage-1.0.3",
      "packageUri": "lib/",
      "languageVersion": "2.12"
    },
    {
      "name": "crypto",
      "rootUri": "file:///Users/tyfoo/Documents/Development/flutter/.pub-cache/hosted/pub.dartlang.org/crypto-3.0.1",
      "packageUri": "lib/",
      "languageVersion": "2.12"
    },
    {
      "name": "cupertino_icons",
      "rootUri": "file:///Users/tyfoo/Documents/Development/flutter/.pub-cache/hosted/pub.dartlang.org/cupertino_icons-1.0.3",
      "packageUri": "lib/",
      "languageVersion": "2.12"
    },
    {
      "name": "dart_style",
      "rootUri": "file:///Users/tyfoo/Documents/Development/flutter/.pub-cache/hosted/pub.dartlang.org/dart_style-2.1.0",
      "packageUri": "lib/",
      "languageVersion": "2.12"
    },
    {
      "name": "dbus",
      "rootUri": "file:///Users/tyfoo/Documents/Development/flutter/.pub-cache/hosted/pub.dartlang.org/dbus-0.5.6",
      "packageUri": "lib/",
      "languageVersion": "2.12"
    },
    {
      "name": "device_info_plus",
      "rootUri": "file:///Users/tyfoo/Documents/Development/flutter/.pub-cache/hosted/pub.dartlang.org/device_info_plus-2.1.0",
      "packageUri": "lib/",
      "languageVersion": "2.12"
    },
    {
      "name": "device_info_plus_linux",
      "rootUri": "file:///Users/tyfoo/Documents/Development/flutter/.pub-cache/hosted/pub.dartlang.org/device_info_plus_linux-2.1.0",
      "packageUri": "lib/",
      "languageVersion": "2.12"
    },
    {
      "name": "device_info_plus_macos",
      "rootUri": "file:///Users/tyfoo/Documents/Development/flutter/.pub-cache/hosted/pub.dartlang.org/device_info_plus_macos-2.1.0",
      "packageUri": "lib/",
      "languageVersion": "2.12"
    },
    {
      "name": "device_info_plus_platform_interface",
      "rootUri": "file:///Users/tyfoo/Documents/Development/flutter/.pub-cache/hosted/pub.dartlang.org/device_info_plus_platform_interface-2.1.0",
      "packageUri": "lib/",
      "languageVersion": "2.12"
    },
    {
      "name": "device_info_plus_web",
      "rootUri": "file:///Users/tyfoo/Documents/Development/flutter/.pub-cache/hosted/pub.dartlang.org/device_info_plus_web-2.1.0",
      "packageUri": "lib/",
      "languageVersion": "2.12"
    },
    {
      "name": "device_info_plus_windows",
      "rootUri": "file:///Users/tyfoo/Documents/Development/flutter/.pub-cache/hosted/pub.dartlang.org/device_info_plus_windows-2.1.0",
      "packageUri": "lib/",
      "languageVersion": "2.12"
    },
    {
      "name": "fake_async",
      "rootUri": "file:///Users/tyfoo/Documents/Development/flutter/.pub-cache/hosted/pub.dartlang.org/fake_async-1.2.0",
      "packageUri": "lib/",
      "languageVersion": "2.12"
    },
    {
      "name": "ffi",
      "rootUri": "file:///Users/tyfoo/Documents/Development/flutter/.pub-cache/hosted/pub.dartlang.org/ffi-1.1.2",
      "packageUri": "lib/",
      "languageVersion": "2.12"
    },
    {
      "name": "file",
      "rootUri": "file:///Users/tyfoo/Documents/Development/flutter/.pub-cache/hosted/pub.dartlang.org/file-6.1.2",
      "packageUri": "lib/",
      "languageVersion": "2.12"
    },
    {
      "name": "fixnum",
      "rootUri": "file:///Users/tyfoo/Documents/Development/flutter/.pub-cache/hosted/pub.dartlang.org/fixnum-1.0.0",
      "packageUri": "lib/",
      "languageVersion": "2.12"
    },
    {
      "name": "flutter",
      "rootUri": "file:///Users/tyfoo/Documents/Development/flutter/packages/flutter",
      "packageUri": "lib/",
      "languageVersion": "2.12"
    },
    {
      "name": "flutter_bloc",
      "rootUri": "file:///Users/tyfoo/Documents/Development/flutter/.pub-cache/hosted/pub.dartlang.org/flutter_bloc-7.2.0",
      "packageUri": "lib/",
      "languageVersion": "2.12"
    },
    {
      "name": "flutter_map",
      "rootUri": "file:///Users/tyfoo/Documents/Development/flutter/.pub-cache/hosted/pub.dartlang.org/flutter_map-0.13.1",
      "packageUri": "lib/",
      "languageVersion": "2.12"
    },
    {
      "name": "flutter_test",
      "rootUri": "file:///Users/tyfoo/Documents/Development/flutter/packages/flutter_test",
      "packageUri": "lib/",
      "languageVersion": "2.12"
    },
    {
      "name": "flutter_web_plugins",
      "rootUri": "file:///Users/tyfoo/Documents/Development/flutter/packages/flutter_web_plugins",
      "packageUri": "lib/",
      "languageVersion": "2.12"
    },
    {
      "name": "freezed",
      "rootUri": "file:///Users/tyfoo/Documents/Development/flutter/.pub-cache/hosted/pub.dartlang.org/freezed-0.14.2",
      "packageUri": "lib/",
      "languageVersion": "2.12"
    },
    {
      "name": "freezed_annotation",
      "rootUri": "file:///Users/tyfoo/Documents/Development/flutter/.pub-cache/hosted/pub.dartlang.org/freezed_annotation-0.14.2",
      "packageUri": "lib/",
      "languageVersion": "2.12"
    },
    {
      "name": "frontend_server_client",
      "rootUri": "file:///Users/tyfoo/Documents/Development/flutter/.pub-cache/hosted/pub.dartlang.org/frontend_server_client-2.1.2",
      "packageUri": "lib/",
      "languageVersion": "2.12"
    },
    {
      "name": "geolocator",
      "rootUri": "file:///Users/tyfoo/Documents/Development/flutter/.pub-cache/hosted/pub.dartlang.org/geolocator-7.6.0",
      "packageUri": "lib/",
      "languageVersion": "2.12"
    },
    {
      "name": "geolocator_android",
      "rootUri": "file:///Users/tyfoo/Documents/Development/flutter/.pub-cache/hosted/pub.dartlang.org/geolocator_android-1.0.0",
      "packageUri": "lib/",
      "languageVersion": "2.12"
    },
    {
      "name": "geolocator_apple",
      "rootUri": "file:///Users/tyfoo/Documents/Development/flutter/.pub-cache/hosted/pub.dartlang.org/geolocator_apple-1.2.0",
      "packageUri": "lib/",
      "languageVersion": "2.12"
    },
    {
      "name": "geolocator_platform_interface",
      "rootUri": "file:///Users/tyfoo/Documents/Development/flutter/.pub-cache/hosted/pub.dartlang.org/geolocator_platform_interface-2.3.4",
      "packageUri": "lib/",
      "languageVersion": "2.12"
    },
    {
      "name": "geolocator_web",
      "rootUri": "file:///Users/tyfoo/Documents/Development/flutter/.pub-cache/hosted/pub.dartlang.org/geolocator_web-2.0.6",
      "packageUri": "lib/",
      "languageVersion": "2.12"
    },
    {
      "name": "glob",
      "rootUri": "file:///Users/tyfoo/Documents/Development/flutter/.pub-cache/hosted/pub.dartlang.org/glob-2.0.1",
      "packageUri": "lib/",
      "languageVersion": "2.12"
    },
    {
      "name": "graphs",
      "rootUri": "file:///Users/tyfoo/Documents/Development/flutter/.pub-cache/hosted/pub.dartlang.org/graphs-2.0.0",
      "packageUri": "lib/",
      "languageVersion": "2.12"
    },
    {
      "name": "http",
      "rootUri": "file:///Users/tyfoo/Documents/Development/flutter/.pub-cache/hosted/pub.dartlang.org/http-0.13.3",
      "packageUri": "lib/",
      "languageVersion": "2.12"
    },
    {
      "name": "http_multi_server",
      "rootUri": "file:///Users/tyfoo/Documents/Development/flutter/.pub-cache/hosted/pub.dartlang.org/http_multi_server-3.0.1",
      "packageUri": "lib/",
      "languageVersion": "2.12"
    },
    {
      "name": "http_parser",
      "rootUri": "file:///Users/tyfoo/Documents/Development/flutter/.pub-cache/hosted/pub.dartlang.org/http_parser-4.0.0",
      "packageUri": "lib/",
      "languageVersion": "2.12"
    },
    {
      "name": "intl",
      "rootUri": "file:///Users/tyfoo/Documents/Development/flutter/.pub-cache/hosted/pub.dartlang.org/intl-0.17.0",
      "packageUri": "lib/",
      "languageVersion": "2.12"
    },
    {
      "name": "io",
      "rootUri": "file:///Users/tyfoo/Documents/Development/flutter/.pub-cache/hosted/pub.dartlang.org/io-1.0.3",
      "packageUri": "lib/",
      "languageVersion": "2.12"
    },
    {
      "name": "js",
      "rootUri": "file:///Users/tyfoo/Documents/Development/flutter/.pub-cache/hosted/pub.dartlang.org/js-0.6.3",
      "packageUri": "lib/",
      "languageVersion": "2.12"
    },
    {
      "name": "json_annotation",
      "rootUri": "file:///Users/tyfoo/Documents/Development/flutter/.pub-cache/hosted/pub.dartlang.org/json_annotation-4.0.1",
      "packageUri": "lib/",
      "languageVersion": "2.12"
    },
    {
      "name": "latlong2",
      "rootUri": "file:///Users/tyfoo/Documents/Development/flutter/.pub-cache/hosted/pub.dartlang.org/latlong2-0.8.0",
      "packageUri": "lib/",
      "languageVersion": "2.12"
    },
    {
      "name": "lists",
      "rootUri": "file:///Users/tyfoo/Documents/Development/flutter/.pub-cache/hosted/pub.dartlang.org/lists-1.0.1",
      "packageUri": "lib/",
      "languageVersion": "2.12"
    },
    {
      "name": "location",
      "rootUri": "file:///Users/tyfoo/Documents/Development/flutter/.pub-cache/hosted/pub.dartlang.org/location-4.3.0",
      "packageUri": "lib/",
      "languageVersion": "2.12"
    },
    {
      "name": "location_platform_interface",
      "rootUri": "file:///Users/tyfoo/Documents/Development/flutter/.pub-cache/hosted/pub.dartlang.org/location_platform_interface-2.3.0",
      "packageUri": "lib/",
      "languageVersion": "2.12"
    },
    {
      "name": "location_web",
      "rootUri": "file:///Users/tyfoo/Documents/Development/flutter/.pub-cache/hosted/pub.dartlang.org/location_web-3.1.1",
      "packageUri": "lib/",
      "languageVersion": "2.12"
    },
    {
      "name": "logging",
      "rootUri": "file:///Users/tyfoo/Documents/Development/flutter/.pub-cache/hosted/pub.dartlang.org/logging-1.0.1",
      "packageUri": "lib/",
      "languageVersion": "2.12"
    },
    {
      "name": "matcher",
      "rootUri": "file:///Users/tyfoo/Documents/Development/flutter/.pub-cache/hosted/pub.dartlang.org/matcher-0.12.10",
      "packageUri": "lib/",
      "languageVersion": "2.12"
    },
    {
      "name": "meta",
      "rootUri": "file:///Users/tyfoo/Documents/Development/flutter/.pub-cache/hosted/pub.dartlang.org/meta-1.7.0",
      "packageUri": "lib/",
      "languageVersion": "2.12"
    },
    {
      "name": "mgrs_dart",
      "rootUri": "file:///Users/tyfoo/Documents/Development/flutter/.pub-cache/hosted/pub.dartlang.org/mgrs_dart-2.0.0",
      "packageUri": "lib/",
      "languageVersion": "2.12"
    },
    {
      "name": "mime",
      "rootUri": "file:///Users/tyfoo/Documents/Development/flutter/.pub-cache/hosted/pub.dartlang.org/mime-1.0.0",
      "packageUri": "lib/",
      "languageVersion": "2.12"
    },
    {
      "name": "mockito",
      "rootUri": "file:///Users/tyfoo/Documents/Development/flutter/.pub-cache/hosted/pub.dartlang.org/mockito-5.0.15",
      "packageUri": "lib/",
      "languageVersion": "2.12"
    },
    {
      "name": "mocktail",
      "rootUri": "file:///Users/tyfoo/Documents/Development/flutter/.pub-cache/hosted/pub.dartlang.org/mocktail-0.1.4",
      "packageUri": "lib/",
      "languageVersion": "2.12"
    },
    {
      "name": "nested",
      "rootUri": "file:///Users/tyfoo/Documents/Development/flutter/.pub-cache/hosted/pub.dartlang.org/nested-1.0.0",
      "packageUri": "lib/",
      "languageVersion": "2.12"
    },
    {
      "name": "network_info_plus",
      "rootUri": "file:///Users/tyfoo/Documents/Development/flutter/.pub-cache/hosted/pub.dartlang.org/network_info_plus-1.1.0",
      "packageUri": "lib/",
      "languageVersion": "2.12"
    },
    {
      "name": "network_info_plus_linux",
      "rootUri": "file:///Users/tyfoo/Documents/Development/flutter/.pub-cache/hosted/pub.dartlang.org/network_info_plus_linux-1.1.0",
      "packageUri": "lib/",
      "languageVersion": "2.12"
    },
    {
      "name": "network_info_plus_macos",
      "rootUri": "file:///Users/tyfoo/Documents/Development/flutter/.pub-cache/hosted/pub.dartlang.org/network_info_plus_macos-1.0.1",
      "packageUri": "lib/",
      "languageVersion": "2.12"
    },
    {
      "name": "network_info_plus_platform_interface",
      "rootUri": "file:///Users/tyfoo/Documents/Development/flutter/.pub-cache/hosted/pub.dartlang.org/network_info_plus_platform_interface-1.1.0",
      "packageUri": "lib/",
      "languageVersion": "2.12"
    },
    {
      "name": "network_info_plus_web",
      "rootUri": "file:///Users/tyfoo/Documents/Development/flutter/.pub-cache/hosted/pub.dartlang.org/network_info_plus_web-1.0.1",
      "packageUri": "lib/",
      "languageVersion": "2.12"
    },
    {
      "name": "network_info_plus_windows",
      "rootUri": "file:///Users/tyfoo/Documents/Development/flutter/.pub-cache/hosted/pub.dartlang.org/network_info_plus_windows-1.0.2",
      "packageUri": "lib/",
      "languageVersion": "2.12"
    },
    {
      "name": "nm",
      "rootUri": "file:///Users/tyfoo/Documents/Development/flutter/.pub-cache/hosted/pub.dartlang.org/nm-0.3.0",
      "packageUri": "lib/",
      "languageVersion": "2.12"
    },
    {
      "name": "node_preamble",
      "rootUri": "file:///Users/tyfoo/Documents/Development/flutter/.pub-cache/hosted/pub.dartlang.org/node_preamble-2.0.1",
      "packageUri": "lib/",
      "languageVersion": "2.12"
    },
    {
      "name": "package_config",
      "rootUri": "file:///Users/tyfoo/Documents/Development/flutter/.pub-cache/hosted/pub.dartlang.org/package_config-2.0.0",
      "packageUri": "lib/",
      "languageVersion": "2.12"
    },
    {
      "name": "path",
      "rootUri": "file:///Users/tyfoo/Documents/Development/flutter/.pub-cache/hosted/pub.dartlang.org/path-1.8.0",
      "packageUri": "lib/",
      "languageVersion": "2.12"
    },
    {
      "name": "pedantic",
      "rootUri": "file:///Users/tyfoo/Documents/Development/flutter/.pub-cache/hosted/pub.dartlang.org/pedantic-1.11.1",
      "packageUri": "lib/",
      "languageVersion": "2.12"
    },
    {
      "name": "permission_handler",
      "rootUri": "file:///Users/tyfoo/Documents/Development/flutter/.pub-cache/hosted/pub.dartlang.org/permission_handler-8.1.4+2",
      "packageUri": "lib/",
      "languageVersion": "2.12"
    },
    {
      "name": "permission_handler_platform_interface",
      "rootUri": "file:///Users/tyfoo/Documents/Development/flutter/.pub-cache/hosted/pub.dartlang.org/permission_handler_platform_interface-3.6.1",
      "packageUri": "lib/",
      "languageVersion": "2.12"
    },
    {
      "name": "petitparser",
      "rootUri": "file:///Users/tyfoo/Documents/Development/flutter/.pub-cache/hosted/pub.dartlang.org/petitparser-4.1.0",
      "packageUri": "lib/",
      "languageVersion": "2.12"
    },
    {
      "name": "plugin_platform_interface",
      "rootUri": "file:///Users/tyfoo/Documents/Development/flutter/.pub-cache/hosted/pub.dartlang.org/plugin_platform_interface-2.0.1",
      "packageUri": "lib/",
      "languageVersion": "2.12"
    },
    {
      "name": "pool",
      "rootUri": "file:///Users/tyfoo/Documents/Development/flutter/.pub-cache/hosted/pub.dartlang.org/pool-1.5.0",
      "packageUri": "lib/",
      "languageVersion": "2.12"
    },
    {
      "name": "positioned_tap_detector_2",
      "rootUri": "file:///Users/tyfoo/Documents/Development/flutter/.pub-cache/hosted/pub.dartlang.org/positioned_tap_detector_2-1.0.0",
      "packageUri": "lib/",
      "languageVersion": "2.12"
    },
    {
      "name": "proj4dart",
      "rootUri": "file:///Users/tyfoo/Documents/Development/flutter/.pub-cache/hosted/pub.dartlang.org/proj4dart-2.0.0",
      "packageUri": "lib/",
      "languageVersion": "2.12"
    },
    {
      "name": "provider",
      "rootUri": "file:///Users/tyfoo/Documents/Development/flutter/.pub-cache/hosted/pub.dartlang.org/provider-6.0.0",
      "packageUri": "lib/",
      "languageVersion": "2.12"
    },
    {
      "name": "pub_semver",
      "rootUri": "file:///Users/tyfoo/Documents/Development/flutter/.pub-cache/hosted/pub.dartlang.org/pub_semver-2.0.0",
      "packageUri": "lib/",
      "languageVersion": "2.12"
    },
    {
      "name": "pubspec_parse",
      "rootUri": "file:///Users/tyfoo/Documents/Development/flutter/.pub-cache/hosted/pub.dartlang.org/pubspec_parse-1.0.0",
      "packageUri": "lib/",
      "languageVersion": "2.12"
    },
    {
      "name": "quiver",
      "rootUri": "file:///Users/tyfoo/Documents/Development/flutter/.pub-cache/hosted/pub.dartlang.org/quiver-3.0.1",
      "packageUri": "lib/",
      "languageVersion": "2.12"
    },
    {
      "name": "shelf",
      "rootUri": "file:///Users/tyfoo/Documents/Development/flutter/.pub-cache/hosted/pub.dartlang.org/shelf-1.2.0",
      "packageUri": "lib/",
      "languageVersion": "2.12"
    },
    {
      "name": "shelf_packages_handler",
      "rootUri": "file:///Users/tyfoo/Documents/Development/flutter/.pub-cache/hosted/pub.dartlang.org/shelf_packages_handler-3.0.0",
      "packageUri": "lib/",
      "languageVersion": "2.12"
    },
    {
      "name": "shelf_static",
      "rootUri": "file:///Users/tyfoo/Documents/Development/flutter/.pub-cache/hosted/pub.dartlang.org/shelf_static-1.1.0",
      "packageUri": "lib/",
      "languageVersion": "2.12"
    },
    {
      "name": "shelf_web_socket",
      "rootUri": "file:///Users/tyfoo/Documents/Development/flutter/.pub-cache/hosted/pub.dartlang.org/shelf_web_socket-1.0.1",
      "packageUri": "lib/",
      "languageVersion": "2.12"
    },
    {
      "name": "sky_engine",
      "rootUri": "file:///Users/tyfoo/Documents/Development/flutter/bin/cache/pkg/sky_engine",
      "packageUri": "lib/",
      "languageVersion": "2.12"
    },
    {
      "name": "source_gen",
      "rootUri": "file:///Users/tyfoo/Documents/Development/flutter/.pub-cache/hosted/pub.dartlang.org/source_gen-1.0.3",
      "packageUri": "lib/",
      "languageVersion": "2.12"
    },
    {
      "name": "source_map_stack_trace",
      "rootUri": "file:///Users/tyfoo/Documents/Development/flutter/.pub-cache/hosted/pub.dartlang.org/source_map_stack_trace-2.1.0",
      "packageUri": "lib/",
      "languageVersion": "2.12"
    },
    {
      "name": "source_maps",
      "rootUri": "file:///Users/tyfoo/Documents/Development/flutter/.pub-cache/hosted/pub.dartlang.org/source_maps-0.10.10",
      "packageUri": "lib/",
      "languageVersion": "2.12"
    },
    {
      "name": "source_span",
      "rootUri": "file:///Users/tyfoo/Documents/Development/flutter/.pub-cache/hosted/pub.dartlang.org/source_span-1.8.1",
      "packageUri": "lib/",
      "languageVersion": "2.12"
    },
    {
      "name": "stack_trace",
      "rootUri": "file:///Users/tyfoo/Documents/Development/flutter/.pub-cache/hosted/pub.dartlang.org/stack_trace-1.10.0",
      "packageUri": "lib/",
      "languageVersion": "2.12"
    },
    {
      "name": "stream_channel",
      "rootUri": "file:///Users/tyfoo/Documents/Development/flutter/.pub-cache/hosted/pub.dartlang.org/stream_channel-2.1.0",
      "packageUri": "lib/",
      "languageVersion": "2.12"
    },
    {
      "name": "stream_transform",
      "rootUri": "file:///Users/tyfoo/Documents/Development/flutter/.pub-cache/hosted/pub.dartlang.org/stream_transform-2.0.0",
      "packageUri": "lib/",
      "languageVersion": "2.12"
    },
    {
      "name": "string_scanner",
      "rootUri": "file:///Users/tyfoo/Documents/Development/flutter/.pub-cache/hosted/pub.dartlang.org/string_scanner-1.1.0",
      "packageUri": "lib/",
      "languageVersion": "2.12"
    },
    {
      "name": "term_glyph",
      "rootUri": "file:///Users/tyfoo/Documents/Development/flutter/.pub-cache/hosted/pub.dartlang.org/term_glyph-1.2.0",
      "packageUri": "lib/",
      "languageVersion": "2.12"
    },
    {
      "name": "test",
      "rootUri": "file:///Users/tyfoo/Documents/Development/flutter/.pub-cache/hosted/pub.dartlang.org/test-1.17.10",
      "packageUri": "lib/",
      "languageVersion": "2.12"
    },
    {
      "name": "test_api",
      "rootUri": "file:///Users/tyfoo/Documents/Development/flutter/.pub-cache/hosted/pub.dartlang.org/test_api-0.4.2",
      "packageUri": "lib/",
      "languageVersion": "2.12"
    },
    {
      "name": "test_core",
      "rootUri": "file:///Users/tyfoo/Documents/Development/flutter/.pub-cache/hosted/pub.dartlang.org/test_core-0.4.0",
      "packageUri": "lib/",
      "languageVersion": "2.12"
    },
    {
      "name": "timing",
      "rootUri": "file:///Users/tyfoo/Documents/Development/flutter/.pub-cache/hosted/pub.dartlang.org/timing-1.0.0",
      "packageUri": "lib/",
      "languageVersion": "2.12"
    },
    {
      "name": "transparent_image",
      "rootUri": "file:///Users/tyfoo/Documents/Development/flutter/.pub-cache/hosted/pub.dartlang.org/transparent_image-2.0.0",
      "packageUri": "lib/",
      "languageVersion": "2.12"
    },
    {
      "name": "tuple",
      "rootUri": "file:///Users/tyfoo/Documents/Development/flutter/.pub-cache/hosted/pub.dartlang.org/tuple-2.0.0",
      "packageUri": "lib/",
      "languageVersion": "2.12"
    },
    {
      "name": "typed_data",
      "rootUri": "file:///Users/tyfoo/Documents/Development/flutter/.pub-cache/hosted/pub.dartlang.org/typed_data-1.3.0",
      "packageUri": "lib/",
      "languageVersion": "2.12"
    },
    {
      "name": "unicode",
      "rootUri": "file:///Users/tyfoo/Documents/Development/flutter/.pub-cache/hosted/pub.dartlang.org/unicode-0.3.1",
      "packageUri": "lib/",
      "languageVersion": "2.12"
    },
    {
      "name": "vector_math",
      "rootUri": "file:///Users/tyfoo/Documents/Development/flutter/.pub-cache/hosted/pub.dartlang.org/vector_math-2.1.0",
      "packageUri": "lib/",
      "languageVersion": "2.12"
    },
    {
      "name": "vm_service",
      "rootUri": "file:///Users/tyfoo/Documents/Development/flutter/.pub-cache/hosted/pub.dartlang.org/vm_service-6.2.0",
      "packageUri": "lib/",
      "languageVersion": "2.12"
    },
    {
      "name": "watcher",
      "rootUri": "file:///Users/tyfoo/Documents/Development/flutter/.pub-cache/hosted/pub.dartlang.org/watcher-1.0.0",
      "packageUri": "lib/",
      "languageVersion": "2.12"
    },
    {
      "name": "web_socket_channel",
      "rootUri": "file:///Users/tyfoo/Documents/Development/flutter/.pub-cache/hosted/pub.dartlang.org/web_socket_channel-2.1.0",
      "packageUri": "lib/",
      "languageVersion": "2.12"
    },
    {
      "name": "webkit_inspection_protocol",
      "rootUri": "file:///Users/tyfoo/Documents/Development/flutter/.pub-cache/hosted/pub.dartlang.org/webkit_inspection_protocol-1.0.0",
      "packageUri": "lib/",
      "languageVersion": "2.12"
    },
    {
      "name": "win32",
      "rootUri": "file:///Users/tyfoo/Documents/Development/flutter/.pub-cache/hosted/pub.dartlang.org/win32-2.2.9",
      "packageUri": "lib/",
      "languageVersion": "2.13"
    },
    {
      "name": "wkt_parser",
      "rootUri": "file:///Users/tyfoo/Documents/Development/flutter/.pub-cache/hosted/pub.dartlang.org/wkt_parser-2.0.0",
      "packageUri": "lib/",
      "languageVersion": "2.12"
    },
    {
      "name": "xml",
      "rootUri": "file:///Users/tyfoo/Documents/Development/flutter/.pub-cache/hosted/pub.dartlang.org/xml-5.1.2",
      "packageUri": "lib/",
      "languageVersion": "2.12"
    },
    {
      "name": "yaml",
      "rootUri": "file:///Users/tyfoo/Documents/Development/flutter/.pub-cache/hosted/pub.dartlang.org/yaml-3.1.0",
      "packageUri": "lib/",
      "languageVersion": "2.12"
    },
    {
      "name": "geofence_flutter",
      "rootUri": "../",
      "packageUri": "lib/",
      "languageVersion": "2.12"
    }
  ],
  "generated": "2021-09-11T18:26:41.640804Z",
  "generator": "pub",
  "generatorVersion": "2.14.0"
}
